1º Ano 1º Semestre/Introdução aos Sistemas Digitais (13)/presolution/P7/Part1/simulation/qsim/MuxDemo.msim.vcd
$comment
	File created using the following command:
		vcd file MuxDemo.msim.vcd -direction
$end
$date
	Tue Dec 07 15:55:20 2021
$end
$version
	ModelSim Version 2020.1
$end
$timescale
	1ps
$end

$scope module fun16_1_vhd_vec_tst $end
$var wire 1 ! S [3] $end
$var wire 1 " S [2] $end
$var wire 1 # S [1] $end
$var wire 1 $ S [0] $end
$var wire 1 % y $end

$scope module i1 $end
$var wire 1 & gnd $end
$var wire 1 ' vcc $end
$var wire 1 ( unknown $end
$var wire 1 ) devoe $end
$var wire 1 * devclrn $end
$var wire 1 + devpor $end
$var wire 1 , ww_devoe $end
$var wire 1 - ww_devclrn $end
$var wire 1 . ww_devpor $end
$var wire 1 / ww_y $end
$var wire 1 0 ww_S [3] $end
$var wire 1 1 ww_S [2] $end
$var wire 1 2 ww_S [1] $end
$var wire 1 3 ww_S [0] $end
$var wire 1 4 \y~output_o\ $end
$var wire 1 5 \S[3]~input_o\ $end
$var wire 1 6 \S[2]~input_o\ $end
$var wire 1 7 \S[1]~input_o\ $end
$var wire 1 8 \S[0]~input_o\ $end
$var wire 1 9 \inst|inst4|23~0_combout\ $end
$upscope $end
$upscope $end
$enddefinitions $end
#0
$dumpvars
0%
0&
1'
x(
1)
1*
1+
1,
1-
1.
0/
04
05
06
07
08
09
0!
0"
0#
0$
00
01
02
03
$end
#50000
1$
13
18
19
14
1/
1%
#100000
0$
1#
03
12
17
08
#150000
1$
13
18
#200000
0$
0#
1"
03
02
11
16
07
08
#250000
1$
13
18
#300000
0$
1#
03
12
17
08
#350000
1$
13
18
09
04
0/
0%
#400000
0$
0#
0"
1!
03
02
01
10
15
06
07
08
19
14
1/
1%
#450000
1$
13
18
#500000
0$
1#
03
12
17
08
#550000
1$
13
18
#600000
0$
0#
1"
03
02
11
16
07
08
#650000
1$
13
18
#700000
0$
1#
03
12
17
08
#750000
1$
13
18
#800000
0$
0#
0"
0!
03
02
01
00
05
06
07
08
09
04
0/
0%
#850000
1$
13
18
19
14
1/
1%
#900000
0$
1#
03
12
17
08
#950000
1$
13
18
