1º Ano 1º Semestre/Introdução aos Sistemas Digitais (13)/presolution/P1113/ex8/simulation/qsim/ShiftReg4.msim.vcd
$comment
	File created using the following command:
		vcd file ShiftReg4.msim.vcd -direction
$end
$date
	Sat Jan 22 18:59:43 2022
$end
$version
	ModelSim Version 2020.1
$end
$timescale
	1ps
$end

$scope module shiftreg4_vhd_vec_tst $end
$var wire 1 ! clk $end
$var wire 1 " D0 $end
$var wire 1 # D1 $end
$var wire 1 $ D2 $end
$var wire 1 % D3 $end
$var wire 1 & ld $end
$var wire 1 ' Q0 $end
$var wire 1 ( Q1 $end
$var wire 1 ) Q2 $end
$var wire 1 * Q3 $end
$var wire 1 + si $end

$scope module i1 $end
$var wire 1 , gnd $end
$var wire 1 - vcc $end
$var wire 1 . unknown $end
$var wire 1 / devoe $end
$var wire 1 0 devclrn $end
$var wire 1 1 devpor $end
$var wire 1 2 ww_devoe $end
$var wire 1 3 ww_devclrn $end
$var wire 1 4 ww_devpor $end
$var wire 1 5 ww_Q3 $end
$var wire 1 6 ww_clk $end
$var wire 1 7 ww_si $end
$var wire 1 8 ww_D0 $end
$var wire 1 9 ww_D1 $end
$var wire 1 : ww_ld $end
$var wire 1 ; ww_D2 $end
$var wire 1 < ww_D3 $end
$var wire 1 = ww_Q0 $end
$var wire 1 > ww_Q1 $end
$var wire 1 ? ww_Q2 $end
$var wire 1 @ \Q3~output_o\ $end
$var wire 1 A \Q0~output_o\ $end
$var wire 1 B \Q1~output_o\ $end
$var wire 1 C \Q2~output_o\ $end
$var wire 1 D \clk~input_o\ $end
$var wire 1 E \D0~input_o\ $end
$var wire 1 F \inst~q\ $end
$var wire 1 G \si~input_o\ $end
$var wire 1 H \D1~input_o\ $end
$var wire 1 I \ld~input_o\ $end
$var wire 1 J \inst4~combout\ $end
$var wire 1 K \inst1~q\ $end
$var wire 1 L \D2~input_o\ $end
$var wire 1 M \inst5~combout\ $end
$var wire 1 N \inst2~q\ $end
$var wire 1 O \D3~input_o\ $end
$var wire 1 P \inst6~combout\ $end
$var wire 1 Q \inst3~q\ $end
$upscope $end
$upscope $end
$enddefinitions $end
#0
$dumpvars
0!
0"
0#
0$
0%
0&
0'
0(
0)
0*
1+
0,
1-
x.
1/
10
11
12
13
14
05
06
17
08
09
0:
0;
0<
0=
0>
0?
0@
0A
0B
0C
0D
0E
0F
1G
0H
0I
0J
0K
0L
0M
0N
0O
0P
0Q
$end
#25000
1!
16
1D
#50000
0!
1"
1#
06
18
19
1H
1E
0D
1J
#75000
1!
16
1D
1F
1K
1M
1B
1A
1>
1=
1(
1'
#100000
0!
0"
0#
1%
1&
0+
06
08
09
1<
1:
07
0G
1I
1O
0H
0E
0D
0J
0M
#125000
1!
16
1D
0F
0K
0B
0A
0>
0=
0(
0'
#150000
0!
1$
06
1;
1L
0D
#175000
1!
16
1D
#200000
0!
0$
1"
1#
1+
06
0;
18
19
17
1G
1H
1E
0L
0D
#225000
1!
16
1D
1F
1J
1A
1=
1'
#250000
0!
06
0D
#275000
1!
16
1D
1K
1M
1B
1>
1(
#300000
0!
0"
0%
06
08
0<
0O
0E
0D
#325000
1!
16
1D
0F
1N
1P
0J
1C
0A
1?
0=
1)
0'
#350000
0!
0#
0&
06
09
0:
0I
0H
0D
#375000
1!
16
1D
0K
1Q
0M
1@
0B
15
0>
1*
0(
#400000
0!
1%
0+
06
1<
07
0G
1O
0D
#425000
1!
16
1D
0N
0C
0?
0)
#450000
0!
0%
1#
1&
06
0<
19
1:
1I
1H
0O
0D
0P
#475000
1!
16
1D
0Q
0@
05
0*
#500000
0!
0&
1"
06
0:
18
1E
0I
0D
1J
#525000
1!
16
1D
1F
1K
1B
1A
1>
1=
1(
1'
#550000
0!
0"
0#
1+
1$
06
08
09
17
1;
1L
1G
0H
0E
0D
1M
#575000
1!
16
1D
0F
1N
1P
0J
1C
0A
1?
0=
1)
0'
#600000
0!
1"
1#
0$
1&
1%
06
18
19
0;
1:
1<
1O
1I
0L
1H
1E
0D
#625000
1!
16
1D
1F
0K
1Q
0M
1J
1@
0B
1A
15
0>
1=
1*
0(
1'
#650000
0!
0"
0%
0+
06
08
0<
07
0G
0O
0E
0D
0J
0P
#675000
1!
16
1D
0F
0N
0Q
0@
0C
0A
05
0?
0=
0*
0)
0'
#700000
0!
1"
0#
0&
06
18
09
0:
0I
0H
1E
0D
#725000
1!
16
1D
1F
1A
1=
1'
#750000
0!
0"
1%
1$
06
08
1<
1;
1L
1O
0E
0D
1P
1M
#775000
1!
16
1D
0F
1N
1Q
1@
1C
0A
15
1?
0=
1*
1)
0'
#800000
0!
0%
1+
06
0<
17
1G
0O
0D
#825000
1!
16
1D
#850000
0!
1%
0$
1#
06
1<
0;
19
1H
0L
1O
0D
0M
1J
#875000
1!
16
1D
1K
0N
1M
0C
1B
0?
1>
0)
1(
#900000
0!
0%
0+
06
0<
07
0G
0O
0D
0M
0P
#925000
1!
16
1D
0Q
0@
05
0*
#950000
0!
1"
06
18
1E
0D
#975000
1!
16
1D
1F
1A
1=
1'
