1º Ano 1º Semestre/Introdução aos Sistemas Digitais (13)/presolution/P6/Part1/Dec2_4/simulation/qsim/Dec2_4t.msim.vcd
$comment
	File created using the following command:
		vcd file Dec2_4t.msim.vcd -direction
$end
$date
	Mon Dec 06 13:28:53 2021
$end
$version
	ModelSim Version 2020.1
$end
$timescale
	1ps
$end

$scope module dec4_16_vhd_vec_tst $end
$var wire 1 ! E0 $end
$var wire 1 " E1 $end
$var wire 1 # gnd $end
$var wire 1 $ x0 $end
$var wire 1 % x1 $end
$var wire 1 & X2 $end
$var wire 1 ' X3 $end
$var wire 1 ( y0 $end
$var wire 1 ) y1 $end
$var wire 1 * y2 $end
$var wire 1 + y3 $end
$var wire 1 , y4 $end
$var wire 1 - y5 $end
$var wire 1 . y6 $end
$var wire 1 / y7 $end
$var wire 1 0 y8 $end
$var wire 1 1 y9 $end
$var wire 1 2 y10 $end
$var wire 1 3 y11 $end
$var wire 1 4 y12 $end
$var wire 1 5 y13 $end
$var wire 1 6 y14 $end
$var wire 1 7 y15 $end

$scope module i1 $end
$var wire 1 8 gnd $end
$var wire 1 9 vcc $end
$var wire 1 : unknown $end
$var wire 1 ; devoe $end
$var wire 1 < devclrn $end
$var wire 1 = devpor $end
$var wire 1 > ww_devoe $end
$var wire 1 ? ww_devclrn $end
$var wire 1 @ ww_devpor $end
$var wire 1 A ww_y0 $end
$var wire 1 B \ww_gnd\ $end
$var wire 1 C ww_E0 $end
$var wire 1 D ww_E1 $end
$var wire 1 E ww_X3 $end
$var wire 1 F ww_X2 $end
$var wire 1 G ww_x1 $end
$var wire 1 H ww_x0 $end
$var wire 1 I ww_y2 $end
$var wire 1 J ww_y1 $end
$var wire 1 K ww_y3 $end
$var wire 1 L ww_y4 $end
$var wire 1 M ww_y5 $end
$var wire 1 N ww_y6 $end
$var wire 1 O ww_y7 $end
$var wire 1 P ww_y8 $end
$var wire 1 Q ww_y9 $end
$var wire 1 R ww_y10 $end
$var wire 1 S ww_y11 $end
$var wire 1 T ww_y12 $end
$var wire 1 U ww_y13 $end
$var wire 1 V ww_y14 $end
$var wire 1 W ww_y15 $end
$var wire 1 X \y0~output_o\ $end
$var wire 1 Y \y2~output_o\ $end
$var wire 1 Z \y1~output_o\ $end
$var wire 1 [ \y3~output_o\ $end
$var wire 1 \ \y4~output_o\ $end
$var wire 1 ] \y5~output_o\ $end
$var wire 1 ^ \y6~output_o\ $end
$var wire 1 _ \y7~output_o\ $end
$var wire 1 ` \y8~output_o\ $end
$var wire 1 a \y9~output_o\ $end
$var wire 1 b \y10~output_o\ $end
$var wire 1 c \y11~output_o\ $end
$var wire 1 d \y12~output_o\ $end
$var wire 1 e \y13~output_o\ $end
$var wire 1 f \y14~output_o\ $end
$var wire 1 g \y15~output_o\ $end
$var wire 1 h \E1~input_o\ $end
$var wire 1 i \X2~input_o\ $end
$var wire 1 j \X3~input_o\ $end
$var wire 1 k \E0~input_o\ $end
$var wire 1 l \inst7|inst3~combout\ $end
$var wire 1 m \x0~input_o\ $end
$var wire 1 n \gnd~input_o\ $end
$var wire 1 o \x1~input_o\ $end
$var wire 1 p \inst11|inst3~combout\ $end
$var wire 1 q \inst11|inst2~combout\ $end
$var wire 1 r \inst11|inst1~combout\ $end
$var wire 1 s \inst11|inst~combout\ $end
$var wire 1 t \inst7|inst1~combout\ $end
$var wire 1 u \inst10|inst3~combout\ $end
$var wire 1 v \inst10|inst1~combout\ $end
$var wire 1 w \inst10|inst2~combout\ $end
$var wire 1 x \inst10|inst~combout\ $end
$var wire 1 y \inst7|inst2~combout\ $end
$var wire 1 z \inst9|inst3~combout\ $end
$var wire 1 { \inst9|inst1~combout\ $end
$var wire 1 | \inst9|inst2~combout\ $end
$var wire 1 } \inst9|inst~combout\ $end
$var wire 1 ~ \inst7|inst~combout\ $end
$var wire 1 !! \inst8|inst3~combout\ $end
$var wire 1 "! \inst8|inst1~combout\ $end
$var wire 1 #! \inst8|inst2~combout\ $end
$var wire 1 $! \inst8|inst~combout\ $end
$upscope $end
$upscope $end
$enddefinitions $end
#0
$dumpvars
0!
1"
0#
0$
0%
0&
0'
1(
0)
0*
0+
0,
0-
0.
0/
00
01
02
03
04
05
06
07
08
19
x:
1;
1<
1=
1>
1?
1@
1A
0B
0C
1D
0E
0F
0G
0H
0I
0J
0K
0L
0M
0N
0O
0P
0Q
0R
0S
0T
0U
0V
0W
1X
0Y
0Z
0[
0\
0]
0^
0_
0`
0a
0b
0c
0d
0e
0f
0g
1h
0i
0j
0k
1l
0m
0n
0o
1p
0q
0r
0s
0t
0u
0v
0w
0x
0y
0z
0{
0|
0}
0~
0!!
0"!
0#!
0$!
$end
#50000
1$
1H
1m
0p
1r
1Z
0X
1J
0A
1)
0(
#100000
0$
1%
0H
1G
1o
0m
1q
0r
0Z
1Y
0J
1I
0)
1*
#150000
1$
1H
1m
0q
1s
1[
0Y
1K
0I
1+
0*
#200000
0$
0%
1&
0H
0G
1F
1i
0o
0m
1p
0s
0l
1t
1u
0p
0[
1X
0K
1A
0X
1\
0+
1(
0A
1L
0(
1,
#250000
1$
1H
1m
0u
1v
1]
0\
1M
0L
1-
0,
#300000
0$
1%
0H
1G
1o
0m
0v
1w
1^
0]
1N
0M
1.
0-
#350000
1$
1H
1m
0w
1x
1_
0^
1O
0N
1/
0.
#400000
0$
0%
0&
1'
0H
0G
0F
1E
1j
0i
0o
0m
1u
0x
0t
1y
1z
0u
0_
1\
0O
1L
0\
1`
0/
1,
0L
1P
0,
10
#450000
1$
1H
1m
0z
1{
1a
0`
1Q
0P
11
00
#500000
0$
1%
0H
1G
1o
0m
0{
1|
1b
0a
1R
0Q
12
01
#550000
1$
1H
1m
0|
1}
1c
0b
1S
0R
13
02
#600000
0$
0%
1&
0H
0G
1F
1i
0o
0m
1z
0}
0y
1~
1!!
0z
0c
1`
0S
1P
0`
1d
03
10
0P
1T
00
14
#650000
1$
1H
1m
0!!
1"!
1e
0d
1U
0T
15
04
#700000
0$
1%
0H
1G
1o
0m
0"!
1#!
1f
0e
1V
0U
16
05
#750000
1$
1H
1m
0#!
1$!
1g
0f
1W
0V
17
06
#800000
0$
0%
0&
0'
0H
0G
0F
0E
0j
0i
0o
0m
1!!
0$!
1l
0~
0!!
1p
0g
1d
0W
1T
1X
0d
07
14
1A
0T
1(
04
#850000
1$
1H
1m
0p
1r
1Z
0X
1J
0A
1)
0(
#900000
0$
1%
0H
1G
1o
0m
1q
0r
0Z
1Y
0J
1I
0)
1*
#950000
1$
1H
1m
0q
1s
1[
0Y
1K
0I
1+
0*
