1º Ano 1º Semestre/Introdução aos Sistemas Digitais (13)/presolution/P8/simulation/qsim/AddSubDemo.msim.vcd
$comment
	File created using the following command:
		vcd file AddSubDemo.msim.vcd -direction
$end
$date
	Tue Dec 14 15:49:25 2021
$end
$version
	ModelSim Version 2020.1
$end
$timescale
	1ps
$end

$scope module FullAdder_vlg_vec_tst $end
$var reg 1 ! a $end
$var reg 1 " b $end
$var reg 1 # cin $end
$var wire 1 $ cout $end
$var wire 1 % S $end

$scope module i1 $end
$var wire 1 & gnd $end
$var wire 1 ' vcc $end
$var wire 1 ( unknown $end
$var tri1 1 ) devclrn $end
$var tri1 1 * devpor $end
$var tri1 1 + devoe $end
$var wire 1 , S~output_o $end
$var wire 1 - cout~output_o $end
$var wire 1 . a~input_o $end
$var wire 1 / b~input_o $end
$var wire 1 0 cin~input_o $end
$var wire 1 1 inst1~0_combout $end
$var wire 1 2 inst6~0_combout $end
$upscope $end
$upscope $end
$enddefinitions $end
#0
$dumpvars
0!
0"
0#
0$
0%
0&
1'
x(
1)
1*
1+
0,
0-
0.
0/
00
01
02
$end
#50000
1"
1/
11
1,
1%
#100000
1!
0"
1.
0/
#150000
1"
1/
12
01
0,
1-
1$
0%
#200000
1#
0!
0"
10
0.
0/
02
11
1,
0-
0$
1%
#250000
1"
1/
12
01
0,
1-
1$
0%
#300000
1!
0"
1.
0/
#350000
1"
1/
11
1,
1%
#400000
0#
0!
0"
00
0.
0/
02
01
0,
0-
0$
0%
#450000
1"
1/
11
1,
1%
#500000
1!
0"
1.
0/
#550000
1"
1/
12
01
0,
1-
1$
0%
#600000
1#
0!
0"
10
0.
0/
02
11
1,
0-
0$
1%
#650000
1"
1/
12
01
0,
1-
1$
0%
#700000
1!
0"
1.
0/
#750000
1"
1/
11
1,
1%
#800000
0#
0!
0"
00
0.
0/
02
01
0,
0-
0$
0%
#850000
1"
1/
11
1,
1%
#900000
1!
0"
1.
0/
#950000
1"
1/
12
01
0,
1-
1$
0%
