1º Ano 1º Semestre/Introdução aos Sistemas Digitais (13)/presolution/P5/Part1/simulation/qsim/Demo.msim.vcd
$comment
	File created using the following command:
		vcd file Demo.msim.vcd -direction
$end
$date
	Sat Dec 04 19:57:15 2021
$end
$version
	ModelSim Version 2020.1
$end
$timescale
	1ps
$end

$scope module GateDemo_vlg_vec_tst $end
$var reg 1 ! InPort0 $end
$var reg 1 " InPort1 $end
$var wire 1 # outPort $end

$scope module i1 $end
$var wire 1 $ gnd $end
$var wire 1 % vcc $end
$var wire 1 & unknown $end
$var tri1 1 ' devclrn $end
$var tri1 1 ( devpor $end
$var tri1 1 ) devoe $end
$var wire 1 * outPort~output_o $end
$var wire 1 + InPort0~input_o $end
$var wire 1 , InPort1~input_o $end
$var wire 1 - inst~combout $end
$upscope $end
$upscope $end
$enddefinitions $end
#0
$dumpvars
1!
1"
0#
0$
1%
x&
1'
1(
1)
0*
1+
1,
1-
$end
#50000
0!
0"
0+
0,
0-
1*
1#
#100000
1!
1"
1+
1,
1-
0*
0#
#150000
0!
0"
0+
0,
0-
1*
1#
#200000
1!
1"
1+
1,
1-
0*
0#
#250000
0!
0"
0+
0,
0-
1*
1#
#450000
1!
1"
1+
1,
1-
0*
0#
#550000
0!
0"
0+
0,
0-
1*
1#
#600000
1!
1"
1+
1,
1-
0*
0#
#650000
0!
0"
0+
0,
0-
1*
1#
#700000
1!
1"
1+
1,
1-
0*
0#
#800000
0!
0"
0+
0,
0-
1*
1#
