ISD/presolution/P6/Part2/simulation/qsim/dec2_4.msim.vcd
$comment
	File created using the following command:
		vcd file dec2_4.msim.vcd -direction
$end
$date
	Thu Dec 02 10:26:48 2021
$end
$version
	ModelSim Version 2020.1
$end
$timescale
	1ps
$end

$scope module DecoderDemo3_vlg_vec_tst $end
$var reg 1 ! A $end
$var reg 1 " B $end
$var reg 1 # C $end
$var reg 1 $ D $end
$var reg 1 % E0 $end
$var reg 1 & E1 $end
$var wire 1 ' f $end

$scope module i1 $end
$var wire 1 ( gnd $end
$var wire 1 ) vcc $end
$var wire 1 * unknown $end
$var tri1 1 + devclrn $end
$var tri1 1 , devpor $end
$var tri1 1 - devoe $end
$var wire 1 . f~output_o $end
$var wire 1 / A~input_o $end
$var wire 1 0 C~input_o $end
$var wire 1 1 B~input_o $end
$var wire 1 2 D~input_o $end
$var wire 1 3 inst2~0_combout $end
$var wire 1 4 E1~input_o $end
$var wire 1 5 E0~input_o $end
$var wire 1 6 inst2~1_combout $end
$upscope $end
$upscope $end
$enddefinitions $end
#0
$dumpvars
0!
0"
0#
0$
0%
1&
0'
0(
1)
x*
1+
1,
1-
0.
0/
00
01
02
03
14
05
06
$end
#50000
1!
1/
#100000
1"
0!
11
0/
#150000
1!
1/
#200000
1#
0"
0!
10
01
0/
#250000
1!
1/
13
16
1.
1'
#300000
1"
0!
11
0/
#350000
1!
1/
#400000
1$
0#
0"
0!
12
00
01
0/
03
06
0.
0'
#450000
1!
1/
13
16
1.
1'
#500000
1"
0!
11
0/
03
06
0.
0'
#550000
1!
1/
13
16
1.
1'
#600000
1#
0"
0!
10
01
0/
03
06
0.
0'
#650000
1!
1/
13
16
1.
1'
#700000
1"
0!
11
0/
#750000
1!
1/
#800000
0$
0#
0"
0!
02
00
01
0/
03
06
0.
0'
#850000
1!
1/
#900000
1"
0!
11
0/
#950000
1!
1/
