1º Ano 1º Semestre/Introdução aos Sistemas Digitais (13)/presolution/P6/Part3/simulation/qsim/EncoderDemo.msim.vcd
$comment
	File created using the following command:
		vcd file EncoderDemo.msim.vcd -direction
$end
$date
	Mon Dec 06 20:02:52 2021
$end
$version
	ModelSim Version 2020.1
$end
$timescale
	1ps
$end

$scope module PEnc8_3_vlg_vec_tst $end
$var reg 1 ! E_L $end
$var reg 1 " X0 $end
$var reg 1 # X1 $end
$var reg 1 $ X2 $end
$var reg 1 % X3 $end
$var reg 1 & X4 $end
$var reg 1 ' X5 $end
$var reg 1 ( X6 $end
$var reg 1 ) X7 $end
$var wire 1 * OS_L $end
$var wire 1 + Y0 $end
$var wire 1 , Y1 $end
$var wire 1 - Y2 $end

$scope module i1 $end
$var wire 1 . gnd $end
$var wire 1 / vcc $end
$var wire 1 0 unknown $end
$var tri1 1 1 devclrn $end
$var tri1 1 2 devpor $end
$var tri1 1 3 devoe $end
$var wire 1 4 Y2~output_o $end
$var wire 1 5 Y1~output_o $end
$var wire 1 6 Y0~output_o $end
$var wire 1 7 OS_L~output_o $end
$var wire 1 8 E_L~input_o $end
$var wire 1 9 X5~input_o $end
$var wire 1 : X4~input_o $end
$var wire 1 ; X7~input_o $end
$var wire 1 < X6~input_o $end
$var wire 1 = inst564545324~0_combout $end
$var wire 1 > inst24~0_combout $end
$var wire 1 ? X3~input_o $end
$var wire 1 @ X2~input_o $end
$var wire 1 A inst25~0_combout $end
$var wire 1 B inst25~1_combout $end
$var wire 1 C inst26~0_combout $end
$var wire 1 D X1~input_o $end
$var wire 1 E inst26~1_combout $end
$var wire 1 F inst26~2_combout $end
$var wire 1 G inst564545324~1_combout $end
$var wire 1 H X0~input_o $end
$var wire 1 I inst564545324~2_combout $end
$upscope $end
$upscope $end
$enddefinitions $end
#0
$dumpvars
0!
0"
0#
0$
0%
0&
0'
0(
0)
1*
0+
0,
0-
0.
1/
x0
11
12
13
04
05
06
17
08
09
0:
0;
0<
1=
0>
0?
0@
0A
0B
0C
0D
0E
0F
1G
0H
1I
$end
#40000
1)
1;
1C
0=
1B
15
1,
1F
0I
1>
14
07
16
1+
0*
1-
#110000
1(
0)
1<
0;
0C
0F
06
0+
#200000
1'
0(
19
0<
1C
0B
05
0,
1F
16
1+
#280000
0'
09
0C
1=
0F
1I
0>
04
17
06
0+
1*
0-
#290000
1&
1:
0=
0I
1>
14
07
0*
1-
#360000
1%
0&
1?
0:
0G
1E
1A
1=
1F
1B
0>
04
15
16
1+
1,
0-
#450000
0%
0?
1G
0E
0A
1I
0F
0B
05
06
17
1*
0+
0,
#460000
1$
1@
0G
1A
0I
1B
15
07
0*
1,
#560000
0$
0@
1G
0A
1I
0B
05
17
1*
0,
#570000
1#
1D
0G
1E
0I
1F
16
07
0*
1+
#640000
1"
0#
1H
0D
1G
0E
0F
06
0+
#740000
0"
0H
1I
17
1*
