1º Ano 2º Semestre/Laboratório de Sistemas Digitais (12)/P4/Parte1/simulation/qsim/FlipFlopD_Demo.msim.vcd
$comment
	File created using the following command:
		vcd file FlipFlopD_Demo.msim.vcd -direction
$end
$date
	Tue Apr  5 09:43:50 2022
$end
$version
	ModelSim Version 2020.1
$end
$timescale
	1ps
$end

$scope module flipflopd_vhd_vec_tst $end
$var wire 1 ! clk $end
$var wire 1 " d $end
$var wire 1 # q $end

$scope module i1 $end
$var wire 1 $ gnd $end
$var wire 1 % vcc $end
$var wire 1 & unknown $end
$var wire 1 ' devoe $end
$var wire 1 ( devclrn $end
$var wire 1 ) devpor $end
$var wire 1 * ww_devoe $end
$var wire 1 + ww_devclrn $end
$var wire 1 , ww_devpor $end
$var wire 1 - ww_clk $end
$var wire 1 . ww_d $end
$var wire 1 / ww_q $end
$var wire 1 0 \q~output_o\ $end
$var wire 1 1 \clk~input_o\ $end
$var wire 1 2 \d~input_o\ $end
$var wire 1 3 \q~reg0_q\ $end
$upscope $end
$upscope $end
$enddefinitions $end
#0
$dumpvars
0!
1"
0#
0$
1%
x&
1'
1(
1)
1*
1+
1,
0-
1.
0/
00
01
12
03
$end
#5000
0"
0.
02
#10000
1"
1.
12
#25000
0"
0.
02
#30000
1!
1-
11
#40000
1"
1.
12
#55000
0"
0.
02
#60000
1"
0!
1.
0-
01
12
#65000
0"
0.
02
#75000
1"
1.
12
#85000
0"
0.
02
#90000
1!
1-
11
#110000
1"
1.
12
#115000
0"
0.
02
#120000
1"
0!
1.
0-
01
12
#125000
0"
0.
02
#135000
1"
1.
12
#140000
0"
0.
02
#145000
1"
1.
12
#150000
0"
1!
0.
1-
11
02
13
10
1/
1#
#155000
1"
1.
12
#170000
0"
0.
02
#180000
0!
0-
01
#185000
1"
1.
12
#200000
0"
0.
02
#205000
1"
1.
12
#210000
0"
1!
0.
1-
11
02
#215000
1"
1.
12
#225000
0"
0.
02
#240000
1"
0!
1.
0-
01
12
#245000
0"
0.
02
#255000
1"
1.
12
#265000
0"
0.
02
#270000
1!
1-
11
03
00
0/
0#
#275000
1"
1.
12
#280000
0"
0.
02
#290000
1"
1.
12
#295000
0"
0.
02
#300000
1"
0!
1.
0-
01
12
#305000
0"
0.
02
#310000
1"
1.
12
#320000
0"
0.
02
#325000
1"
1.
12
#330000
1!
1-
11
13
10
1/
1#
#335000
0"
0.
02
#350000
1"
1.
12
#360000
0"
0!
0.
0-
01
02
#365000
1"
1.
12
#370000
0"
0.
02
#375000
1"
1.
12
#390000
1!
1-
11
#415000
0"
0.
02
#420000
0!
0-
01
#425000
1"
1.
12
#435000
0"
0.
02
#450000
1"
1!
1.
1-
11
12
03
00
0/
0#
#460000
0"
0.
02
#465000
1"
1.
12
#470000
0"
0.
02
#480000
0!
0-
01
#490000
1"
1.
12
#495000
0"
0.
02
#510000
1!
1-
11
#515000
1"
1.
12
#520000
0"
0.
02
#535000
1"
1.
12
#540000
0!
0-
01
#555000
0"
0.
02
#570000
1!
1-
11
#575000
1"
1.
12
#580000
0"
0.
02
#590000
1"
1.
12
#600000
0"
0!
0.
0-
01
02
#605000
1"
1.
12
#615000
0"
0.
02
#620000
1"
1.
12
#625000
0"
0.
02
#630000
1!
1-
11
#640000
1"
1.
12
#645000
0"
0.
02
#650000
1"
1.
12
#660000
0"
0!
0.
0-
01
02
#680000
1"
1.
12
#690000
0"
1!
0.
1-
11
02
13
10
1/
1#
#710000
1"
1.
12
#715000
0"
0.
02
#720000
0!
0-
01
#725000
1"
1.
12
#750000
0"
1!
0.
1-
11
02
#760000
1"
1.
12
#765000
0"
0.
02
#775000
1"
1.
12
#780000
0!
0-
01
#785000
0"
0.
02
#790000
1"
1.
12
#795000
0"
0.
02
#800000
1"
1.
12
#805000
0"
0.
02
#810000
1!
1-
11
03
00
0/
0#
#815000
1"
1.
12
#830000
0"
0.
02
#840000
1"
0!
1.
0-
01
12
#850000
0"
0.
02
#860000
1"
1.
12
#870000
0"
1!
0.
1-
11
02
13
10
1/
1#
#875000
1"
1.
12
#885000
0"
0.
02
#890000
1"
1.
12
#900000
0"
0!
0.
0-
01
02
#915000
1"
1.
12
#930000
0"
1!
0.
1-
11
02
#935000
1"
1.
12
#940000
0"
0.
02
#955000
1"
1.
12
#960000
0"
0!
0.
0-
01
02
#965000
1"
1.
12
#970000
0"
0.
02
#975000
1"
1.
12
#985000
0"
0.
02
#990000
1"
1!
1.
1-
11
12
03
00
0/
0#
