1º Ano 1º Semestre/Introdução aos Sistemas Digitais (13)/presolution/P910/simulation/qsim/Bin2Gray.msim.vcd
$comment
	File created using the following command:
		vcd file Bin2Gray.msim.vcd -direction
$end
$date
	Sat Jan 22 10:39:16 2022
$end
$version
	ModelSim Version 2020.1
$end
$timescale
	1ps
$end

$scope module bin2gray_vhd_vec_tst $end
$var wire 1 ! clk $end
$var wire 1 " reset $end
$var wire 1 # x $end
$var wire 1 $ y0 $end
$var wire 1 % y1 $end
$var wire 1 & y2 $end

$scope module i1 $end
$var wire 1 ' gnd $end
$var wire 1 ( vcc $end
$var wire 1 ) unknown $end
$var wire 1 * devoe $end
$var wire 1 + devclrn $end
$var wire 1 , devpor $end
$var wire 1 - ww_devoe $end
$var wire 1 . ww_devclrn $end
$var wire 1 / ww_devpor $end
$var wire 1 0 ww_y2 $end
$var wire 1 1 ww_clk $end
$var wire 1 2 ww_reset $end
$var wire 1 3 ww_x $end
$var wire 1 4 ww_y1 $end
$var wire 1 5 ww_y0 $end
$var wire 1 6 \y2~output_o\ $end
$var wire 1 7 \y1~output_o\ $end
$var wire 1 8 \y0~output_o\ $end
$var wire 1 9 \clk~input_o\ $end
$var wire 1 : \x~input_o\ $end
$var wire 1 ; \reset~input_o\ $end
$var wire 1 < \inst~combout\ $end
$var wire 1 = \inst7~q\ $end
$var wire 1 > \inst8~q\ $end
$var wire 1 ? \inst6~combout\ $end
$var wire 1 @ \inst4000~combout\ $end
$upscope $end
$upscope $end
$enddefinitions $end
#0
$dumpvars
0!
0"
0#
0$
0%
0&
0'
1(
x)
1*
1+
1,
1-
1.
1/
00
01
02
03
04
05
06
07
08
09
0:
0;
0<
0=
0>
0?
0@
$end
#15000
1!
11
19
#30000
0!
01
09
#40000
1#
13
1:
1@
18
15
1$
#45000
1!
11
19
#60000
0!
01
09
#75000
1!
11
19
#90000
0!
01
09
#100000
1"
12
1;
1<
#105000
1!
11
19
1=
1?
0@
08
17
05
14
0$
1%
#120000
0!
01
09
#135000
1!
11
19
1>
0?
16
10
07
1&
04
0%
#150000
0!
01
09
#160000
0#
03
0:
0<
1@
18
15
1$
#165000
1!
11
19
0=
1?
0@
08
17
05
14
0$
1%
#180000
0!
01
09
#195000
1!
11
19
0>
0?
06
00
07
0&
04
0%
#210000
0!
01
09
#225000
1!
11
19
#240000
0!
1#
01
13
1:
09
1<
1@
18
15
1$
#250000
0"
02
0;
0<
#255000
1!
11
19
#270000
0!
01
09
#285000
1!
11
19
#300000
0!
1"
01
12
1;
09
1<
#315000
1!
11
19
1=
1?
0@
08
17
05
14
0$
1%
#320000
0#
03
0:
0<
1@
18
15
1$
#330000
0!
01
09
#345000
1!
11
19
0=
1>
0@
16
10
08
1&
05
0$
#360000
0!
1#
01
13
1:
09
1<
1@
18
15
1$
#375000
1!
11
19
1=
0>
0@
06
00
08
0&
05
0$
#390000
0!
01
09
#400000
0"
02
0;
0<
#405000
1!
11
19
0=
1>
1@
16
10
18
1&
15
1$
#420000
0!
01
09
#435000
1!
11
19
0>
0?
06
00
07
0&
04
0%
#440000
0#
03
0:
0@
08
05
0$
#450000
0!
01
09
#465000
1!
11
19
#480000
0!
01
09
#495000
1!
11
19
#510000
0!
01
09
#520000
1#
13
1:
1@
18
15
1$
#525000
1!
11
19
#540000
0!
01
09
#555000
1!
11
19
#570000
0!
01
09
#585000
1!
11
19
#600000
0!
1"
01
12
1;
09
1<
#615000
1!
11
19
1=
1?
0@
08
17
05
14
0$
1%
#630000
0!
01
09
#640000
0#
03
0:
0<
1@
18
15
1$
#645000
1!
11
19
0=
1>
0@
16
10
08
1&
05
0$
#650000
0"
02
0;
#660000
0!
01
09
#675000
1!
11
19
0>
0?
06
00
07
0&
04
0%
#690000
0!
01
09
#700000
1"
12
1;
#705000
1!
11
19
#720000
0!
1#
01
13
1:
09
1<
1@
18
15
1$
#735000
1!
11
19
1=
1?
0@
08
17
05
14
0$
1%
#750000
0!
0"
01
02
0;
09
0<
#765000
1!
11
19
0=
1>
1@
16
10
18
1&
15
1$
#780000
0!
01
09
#795000
1!
11
19
0>
0?
06
00
07
0&
04
0%
#810000
0!
01
09
#825000
1!
11
19
#840000
0!
0#
01
03
0:
09
0@
08
05
0$
#855000
1!
11
19
#870000
0!
01
09
#880000
1#
13
1:
1@
18
15
1$
#885000
1!
11
19
#900000
0!
1"
01
12
1;
09
1<
#915000
1!
11
19
1=
1?
0@
08
17
05
14
0$
1%
#920000
0#
03
0:
0<
1@
18
15
1$
#930000
0!
01
09
#945000
1!
11
19
0=
1>
0@
16
10
08
1&
05
0$
#950000
0"
02
0;
#960000
0!
01
09
#975000
1!
11
19
0>
0?
06
00
07
0&
04
0%
#990000
0!
01
09
