ISD/presolution/P1113/ex1/simulation/qsim/SeqDet110.msim.vcd
$comment
	File created using the following command:
		vcd file SeqDet110.msim.vcd -direction
$end
$date
	Tue Jan 18 15:43:19 2022
$end
$version
	ModelSim Version 2020.1
$end
$timescale
	1ps
$end

$scope module seqdet110_vhd_vec_tst $end
$var wire 1 ! clk $end
$var wire 1 " x $end
$var wire 1 # y $end

$scope module i1 $end
$var wire 1 $ gnd $end
$var wire 1 % vcc $end
$var wire 1 & unknown $end
$var wire 1 ' devoe $end
$var wire 1 ( devclrn $end
$var wire 1 ) devpor $end
$var wire 1 * ww_devoe $end
$var wire 1 + ww_devclrn $end
$var wire 1 , ww_devpor $end
$var wire 1 - ww_y $end
$var wire 1 . ww_clk $end
$var wire 1 / ww_x $end
$var wire 1 0 \y~output_o\ $end
$var wire 1 1 \clk~input_o\ $end
$var wire 1 2 \x~input_o\ $end
$var wire 1 3 \inst1~q\ $end
$var wire 1 4 \inst3000~0_combout\ $end
$var wire 1 5 \inst~q\ $end
$var wire 1 6 \inst2~0_combout\ $end
$upscope $end
$upscope $end
$enddefinitions $end
#0
$dumpvars
0!
0"
0#
0$
1%
x&
1'
1(
1)
1*
1+
1,
0-
0.
0/
00
01
02
03
04
05
06
$end
#30000
1!
1"
1.
1/
12
11
#60000
0!
0.
01
#90000
1!
1.
11
13
14
#120000
0!
0.
01
#150000
1!
0"
1.
0/
02
11
15
04
14
#180000
0!
0.
01
#210000
1!
1"
1.
1/
12
11
03
04
16
10
1-
1#
#240000
0!
0.
01
#270000
1!
0"
1.
0/
02
11
13
05
06
00
0-
0#
#300000
0!
0.
01
#330000
1!
1.
11
03
#360000
0!
0.
01
#390000
1!
1.
11
#420000
0!
0.
01
#450000
1!
1.
11
#480000
0!
0.
01
#510000
1!
1.
11
#540000
0!
0.
01
#570000
1!
1.
11
#600000
0!
0.
01
#630000
1!
1.
11
#660000
0!
0.
01
#690000
1!
1.
11
#720000
0!
0.
01
#750000
1!
1.
11
#780000
0!
0.
01
#810000
1!
1.
11
#840000
0!
0.
01
#870000
1!
1.
11
#900000
0!
0.
01
#930000
1!
1.
11
#960000
0!
0.
01
#990000
1!
1.
11
